{
  "battle_rules": {
    "tech_disk_mode": "LIMIT_LEVEL",
    "weapon_and_armor_mode": "CLEAR_AND_ALLOW",
    "mag_mode": "FORBID_ALL",
    "tool_mode": "CLEAR_AND_ALLOW",
    "trap_mode": "ALL_PLAYERS",
    "respawn_mode": 2,
    "replace_char": 1,
    "drop_weapon": 1,
    "is_teams": 0,
    "hide_target_reticle": 1,
    "death_level_up": 5,
    "meseta_mode": "CLEAR_AND_ALLOW",
    "enable_sonar": 1,
    "lives": 10,
    "max_tech_level": 1,
    "char_level": 1,
    "time_limit": 10,
    "forbid_scape_dolls": 1,
    "death_tech_level_up": 1,
    "trap_counts": [5, 5, 5, 5],
    "sonar_count": 5,
    "box_drop_area": 1
  }
}
